oblig2/fulladdertest.vcd
$date
	Fri Sep 17 16:56:56 2021
$end
$version
	QuestaSim Version 2020.4
$end
$timescale
	1fs
$end
$scope module tb_fulladder $end
$var wire 1 ! tb_b $end
$scope module DUT $end
$var wire 1 " a $end
$var wire 1 # b $end
$var wire 1 $ cin $end
$var wire 1 % S $end
$var wire 1 & cout $end
$upscope $end
$upscope $end
$enddefinitions $end
#0
0"
0!
0#
0$
0%
0&
0%
0&
#20000000
1$
1%
#30000000
0$
1!
1#
#40000000
1$
1&
0%
#50000000
0$
0!
0#
1"
0&
1%
#60000000
1$
1&
0%
#70000000
0$
1!
1#
#80000000
1$
1%
